C:\Users\206467959\workspace\QuizCongoRestApi\src\Topics\topicApi.java
C:\Users\206467959\workspace\QuizCongoRestApi\src\JsonTestServices\CrunchifyRESTService.java
C:\Users\206467959\workspace\QuizCongoRestApi\src\Topics\Topics.java
C:\Users\206467959\workspace\QuizCongoRestApi\src\CtoFService.java
C:\Users\206467959\workspace\QuizCongoRestApi\src\FtoCService.java
